8. Modo tidyverse
…
[1] "species"           "island"            "largo_pico"       
[4] "prof_pico"         "flipper_length_mm" "peso"             
[7] "sex"               "year"             

Seleccionar y filtrar datos

df_fil1 <- filter(df2, peso> 4000)
df2[df2$peso > 4000,]

# A tibble: 174 x 8
   species island    largo_pico prof_pico flipper_length_mm  peso sex    year
   <fct>   <fct>          <dbl>     <dbl>             <int> <int> <fct> <int>
 1 <NA>    <NA>            NA        NA                  NA    NA <NA>     NA
 2 Adelie  Torgersen       39.2      19.6               195  4675 male   2007
 3 Adelie  Torgersen       42        20.2               190  4250 <NA>   2007
 4 Adelie  Torgersen       34.6      21.1               198  4400 male   2007
 5 Adelie  Torgersen       42.5      20.7               197  4500 male   2007
 6 Adelie  Torgersen       46        21.5               194  4200 male   2007
 7 Adelie  Dream           39.2      21.1               196  4150 male   2007
 8 Adelie  Dream           39.8      19.1               184  4650 male   2007
 9 Adelie  Dream           44.1      19.7               196  4400 male   2007
10 Adelie  Dream           39.6      18.8               190  4600 male   2007
# ... with 164 more rows

min(df_fil1$peso)

[1] 4050

df_fil2 <- filter(df2, peso>4000, 
                  sex != "male", 
                  largo_pico < 47, 
                  species %in% c("Gentoo", "Adelie"))

df2[df2$peso > 4000 & df2$species == c("Adelie","Gentoo"),]

# A tibble: 64 x 8
   species island    largo_pico prof_pico flipper_length_mm  peso sex     year
   <fct>   <fct>          <dbl>     <dbl>             <int> <int> <fct>  <int>
 1 Adelie  Torgersen       34.6      21.1               198  4400 male    2007
 2 Adelie  Dream           39.2      18.6               190  4250 male    2009
 3 Gentoo  Biscoe          50        16.3               230  5700 male    2007
 4 Gentoo  Biscoe          50        15.2               218  5700 male    2007
 5 Gentoo  Biscoe          46.5      13.5               210  4550 female  2007
 6 Gentoo  Biscoe          46.7      15.3               219  5200 male    2007
 7 Gentoo  Biscoe          46.8      15.4               215  5150 male    2007
 8 Gentoo  Biscoe          49        16.1               216  5550 male    2007
 9 Gentoo  Biscoe          48.4      14.6               213  5850 male    2007
10 Gentoo  Biscoe          49.3      15.7               217  5850 male    2007
# ... with 54 more rows

Seleccionar columnas

df_sel <- dplyr::select(df_fil1, species, island)

dplyr::select(df_fil1, -species, -island)

# A tibble: 172 x 6
   largo_pico prof_pico flipper_length_mm  peso sex    year
        <dbl>     <dbl>             <int> <int> <fct> <int>
 1       39.2      19.6               195  4675 male   2007
 2       42        20.2               190  4250 <NA>   2007
 3       34.6      21.1               198  4400 male   2007
 4       42.5      20.7               197  4500 male   2007
 5       46        21.5               194  4200 male   2007
 6       39.2      21.1               196  4150 male   2007
 7       39.8      19.1               184  4650 male   2007
 8       44.1      19.7               196  4400 male   2007
 9       39.6      18.8               190  4600 male   2007
10       42.3      21.2               191  4150 male   2007
# ... with 162 more rows

incluso permite reordenar y renombrar

dplyr::select(df_fil1, 
              isla=island, 
              aleta=flipper_length_mm, 
              species)

# A tibble: 172 x 3
   isla      aleta species
   <fct>     <int> <fct>  
 1 Torgersen   195 Adelie 
 2 Torgersen   190 Adelie 
 3 Torgersen   198 Adelie 
 4 Torgersen   197 Adelie 
 5 Torgersen   194 Adelie 
 6 Dream       196 Adelie 
 7 Dream       184 Adelie 
 8 Dream       196 Adelie 
 9 Dream       190 Adelie 
10 Dream       191 Adelie 
# ... with 162 more rows

o seleccionar dependiendo de la clase

dplyr::select(df, where(is.factor))

# A tibble: 344 x 3
   species island    sex   
   <fct>   <fct>     <fct> 
 1 Adelie  Torgersen male  
 2 Adelie  Torgersen female
 3 Adelie  Torgersen female
 4 Adelie  Torgersen <NA>  
 5 Adelie  Torgersen female
 6 Adelie  Torgersen male  
 7 Adelie  Torgersen female
 8 Adelie  Torgersen male  
 9 Adelie  Torgersen <NA>  
10 Adelie  Torgersen <NA>  
# ... with 334 more rows
…
Conteos

count(df_mut, species)

# A tibble: 3 x 2
  species       n
  <fct>     <int>
1 Adelie       35
2 Chinstrap    15
3 Gentoo      122

count(df_mut, porportion)

# A tibble: 102 x 2
   porportion     n
        <dbl> <int>
 1      0.201     1
 2      0.204     1
 3      0.218     1
 4      0.220     1
 5      0.228     3
 6      0.230     2
 7      0.231     1
 8      0.231     1
 9      0.233     1
10      0.234     1
# ... with 92 more rows
…
